{
  "_meta-info" : "static product list prepared for Wendy's prototype. Pricing has been omitted due to delivery time",
  "Products" : [
    {
      "Id" : 101,
      "Name" : "Batty Bite Wrap",
      "Tagline": "Sink Your Teeth In...",
      "Description" : "Vivamus magna neque, varius id metus ac, eleifend auctor nisl. Mauris mollis dui ac libero eleifend, ac vestibulum orci scelerisque. Ut libero turpis, pulvinar sed lectus sagittis, porta accumsan lacus. Fusce dapibus porttitor ante, ac suscipit massa. Nullam maximus risus eu metus feugiat, a rutrum felis sollicitudin. Mauris sed posuere lorem, ac sodales neque. Quisque ac nunc laoreet, elementum ligula quis, auctor velit. Curabitur odio lacus, laoreet vel mattis vitae, porta a dolor. Mauris sed blandit risus. Lorem ipsum dolor sit amet, consectetur adipiscing elit. Pellentesque habitant morbi tristique senectus et netus et malesuada fames ac turpis egestas. Duis in hendrerit massa, at condimentum est. Vestibulum gravida ut ligula ac facilisis. Donec elit augue, pulvinar fermentum posuere ac, consequat ut enim.",
      "Calories" : 850,
      "Artwork" : {
        "background" : "bg-blue-featured.jpg",
        "background_featured" : "bg-orange-featured.jpg",
        "product" : "product-wraps-batty.jpg"
      }

    },
    {
      "Id" : 102,
      "Name" : "Yummy Mummy Wrap",
      "Tagline": "Sink Your Teeth In...",
      "Description" : "Suspendisse ut placerat est. Ut quis eleifend ante, non elementum elit. Suspendisse faucibus condimentum felis sit amet elementum. Pellentesque eu finibus augue. Phasellus consectetur semper volutpat. Integer ultrices sed odio eget egestas. Pellentesque mollis auctor risus sit amet aliquet. Nullam elementum neque nisi, a aliquet odio commodo vel. Curabitur laoreet feugiat sapien, a convallis erat sodales vel. Etiam rutrum, eros eu efficitur bibendum, diam nibh vehicula felis, quis ullamcorper est erat at lorem. Suspendisse at pellentesque felis. Cras congue, ligula at vehicula convallis, libero velit laoreet enim, a vulputate est leo vitae dui.",
      "Calories" : 700,
      "Artwork" : {
        "background" : "bg-blue-featured.jpg",
        "background_featured" : "bg-purple-featured.jpg",
        "product" : "product-wraps-mummy.jpg"
      }
    },
    {
      "Id" : 103,
      "Name" : "Frightful Fajita Wrap",
      "Tagline": "Sink Your Teeth In...",
      "Description" : "Lorem ipsum dolor sit amet, consectetur adipiscing elit. Maecenas vitae risus tellus. Aliquam varius, felis eu ornare hendrerit, lectus sapien aliquet erat, at venenatis tellus ante ac odio. Proin dictum tincidunt felis, sed luctus tellus rutrum vel. Integer ullamcorper tellus quis risus mollis sodales. Proin vitae magna justo. Etiam accumsan eget lacus a maximus. Suspendisse rhoncus euismod fermentum.",
      "Calories" : 925,
      "Artwork" : {
        "background" : "bg-blue-featured.jpg",
        "background_featured" : "bg-red-featured.jpg",
        "product" : "product-wraps.jpg"
      }
    },
    {
      "Id" : 104,
      "Name" : "Franken-Fries",
      "Tagline": "Frightfully Good...",
      "Description" : "Vivamus magna neque, varius id metus ac, eleifend auctor nisl. Mauris mollis dui ac libero eleifend, ac vestibulum orci scelerisque. Ut libero turpis, pulvinar sed lectus sagittis, porta accumsan lacus. Fusce dapibus porttitor ante, ac suscipit massa. Nullam maximus risus eu metus feugiat, a rutrum felis sollicitudin. Mauris sed posuere lorem, ac sodales neque. Quisque ac nunc laoreet, elementum ligula quis, auctor velit. Curabitur odio lacus, laoreet vel mattis vitae, porta a dolor. Mauris sed blandit risus. Lorem ipsum dolor sit amet, consectetur adipiscing elit. Pellentesque habitant morbi tristique senectus et netus et malesuada fames ac turpis egestas. Duis in hendrerit massa, at condimentum est. Vestibulum gravida ut ligula ac facilisis. Donec elit augue, pulvinar fermentum posuere ac, consequat ut enim.",
      "Calories" : 650,
      "Artwork" : {
        "background" : "bg-red-featured.jpg",
        "background_featured" : "bg-purple-featured.jpg",
        "product" : "product-sides-fries.jpg"
      }
    },
    {
      "Id" : 105,
      "Name" : "Spine Chilling Chili",
      "Tagline": "Frightfully Good...",
      "Description" : "Suspendisse ut placerat est. Ut quis eleifend ante, non elementum elit. Suspendisse faucibus condimentum felis sit amet elementum. Pellentesque eu finibus augue. Phasellus consectetur semper volutpat. Integer ultrices sed odio eget egestas. Pellentesque mollis auctor risus sit amet aliquet. Nullam elementum neque nisi, a aliquet odio commodo vel. Curabitur laoreet feugiat sapien, a convallis erat sodales vel. Etiam rutrum, eros eu efficitur bibendum, diam nibh vehicula felis, quis ullamcorper est erat at lorem. Suspendisse at pellentesque felis. Cras congue, ligula at vehicula convallis, libero velit laoreet enim, a vulputate est leo vitae dui.",
      "Calories" : 720,
      "Artwork" : {
        "background" : "bg-red-featured.jpg",
        "background_featured" : "bg-blue-featured.jpg",
        "product" : "product-sides.jpg"
      }
    },
    {
      "Id" : 106,
      "Name" : "Spooky Mu-Taters",
      "Tagline": "Frightfully Good...",
      "Description" : "Lorem ipsum dolor sit amet, consectetur adipiscing elit. Maecenas vitae risus tellus. Aliquam varius, felis eu ornare hendrerit, lectus sapien aliquet erat, at venenatis tellus ante ac odio. Proin dictum tincidunt felis, sed luctus tellus rutrum vel. Integer ullamcorper tellus quis risus mollis sodales. Proin vitae magna justo. Etiam accumsan eget lacus a maximus. Suspendisse rhoncus euismod fermentum.",
      "Calories" : 800,
      "Artwork" : {
        "background" : "bg-red-featured.jpg",
        "background_featured" : "bg-green-featured.jpg",
        "product" : "product-sides-mummy-taters.jpg"
      }
    },

    {
      "Id" : 107,
      "Name" : "Poisonous Apple Potion",
      "Tagline": "Curious Thirst Quencher...",
      "Description" : "Vivamus magna neque, varius id metus ac, eleifend auctor nisl. Mauris mollis dui ac libero eleifend, ac vestibulum orci scelerisque. Ut libero turpis, pulvinar sed lectus sagittis, porta accumsan lacus. Fusce dapibus porttitor ante, ac suscipit massa. Nullam maximus risus eu metus feugiat, a rutrum felis sollicitudin. Mauris sed posuere lorem, ac sodales neque. Quisque ac nunc laoreet, elementum ligula quis, auctor velit. Curabitur odio lacus, laoreet vel mattis vitae, porta a dolor. Mauris sed blandit risus. Lorem ipsum dolor sit amet, consectetur adipiscing elit. Pellentesque habitant morbi tristique senectus et netus et malesuada fames ac turpis egestas. Duis in hendrerit massa, at condimentum est. Vestibulum gravida ut ligula ac facilisis. Donec elit augue, pulvinar fermentum posuere ac, consequat ut enim.",
      "Calories" : 375,
      "Artwork" : {
        "background" : "bg-orange-featured.jpg",
        "background_featured" : "bg-purple-featured.jpg",
        "product" : "product-smoothies-apple.jpg"
      }
    },
    {
      "Id" : 108,
      "Name" : "Killer Kiwi-Berry Tonic",
      "Tagline": "Curious Thirst Quencher...",
      "Description" : "Suspendisse ut placerat est. Ut quis eleifend ante, non elementum elit. Suspendisse faucibus condimentum felis sit amet elementum. Pellentesque eu finibus augue. Phasellus consectetur semper volutpat. Integer ultrices sed odio eget egestas. Pellentesque mollis auctor risus sit amet aliquet. Nullam elementum neque nisi, a aliquet odio commodo vel. Curabitur laoreet feugiat sapien, a convallis erat sodales vel. Etiam rutrum, eros eu efficitur bibendum, diam nibh vehicula felis, quis ullamcorper est erat at lorem. Suspendisse at pellentesque felis. Cras congue, ligula at vehicula convallis, libero velit laoreet enim, a vulputate est leo vitae dui.",
      "Calories" : 390,
      "Artwork" : {
        "background" : "bg-orange-featured.jpg",
        "background_featured" : "bg-red-featured.jpg",
        "product" : "product-smoothies-kiwiberry.jpg"
      }
    },
    {
      "Id" : 109,
      "Name" : "Beastly Banana Concoction",
      "Tagline": "Curious Thirst Quencher...",
      "Description" : "Lorem ipsum dolor sit amet, consectetur adipiscing elit. Maecenas vitae risus tellus. Aliquam varius, felis eu ornare hendrerit, lectus sapien aliquet erat, at venenatis tellus ante ac odio. Proin dictum tincidunt felis, sed luctus tellus rutrum vel. Integer ullamcorper tellus quis risus mollis sodales. Proin vitae magna justo. Etiam accumsan eget lacus a maximus. Suspendisse rhoncus euismod fermentum.",
      "Calories" : 460,
      "Artwork" : {
        "background" : "bg-orange-featured.jpg",
        "background_featured" : "bg-green-featured.jpg",
        "product" : "product-smoothies-banana.jpg"
      }
    }
  ],
  "ProductCategories" : [
    {
      "Id" : 101,
      "Name" : "Wicked Wraps",
      "Products" : [101,102,103],
      "Artwork" : {
        "background" : "bg-orange.jpg",
        "product" : "product-wraps.jpg"
      }
    },
    {
      "Id" : 102,
      "Name" : "Spooky Sides",
      "Products" : [104,105,106],
      "Artwork" : {
        "background" :"bg-green.jpg",
        "product" : "product-sides.jpg"
      }
    },
    {
      "Id" : 103,
      "Name" : "Frightful Fruit Smoothies",
      "Products" : [107, 108, 109],
      "Artwork" :{
        "background" : "bg-purple.jpg",
        "product" : "product-smoothies.jpg"
      }
    }
  ],
  "ProductPricing" : [
    {
      "Id" : 101,
      "ProductId": 101,
      "SalePrice":0
    }
  ]
}